[gd_scene load_steps=3 format=2]

[ext_resource path="res://Guns/RocketLauncher/RocketLauncher.png" type="Texture" id=1]
[ext_resource path="res://Guns/RocketLauncher/RocketLauncher.gd" type="Script" id=2]

[node name="RocketLauncer" type="Sprite"]
texture = ExtResource( 1 )
script = ExtResource( 2 )
__meta__ = {
"_edit_group_": true,
"_edit_lock_": true
}
description = "Show who is the boss with this authentic RPLS Rocket Launcher"
MAX_BULLETS = 15
ammo_id = 0

[node name="FireDelay" type="Timer" parent="."]
wait_time = 0.5
one_shot = true

[node name="BulletSpread" type="Node2D" parent="."]

[node name="Position2D" type="Position2D" parent="BulletSpread"]
position = Vector2( 0, -50 )
[connection signal="timeout" from="FireDelay" to="." method="_on_FireDelay_timeout"]
