[gd_scene load_steps=4 format=2]

[ext_resource path="res://Ammunition/Bomb/Bomb.gd" type="Script" id=1]
[ext_resource path="res://Ammunition/Bomb/Bomb.png" type="Texture" id=2]

[sub_resource type="CircleShape2D" id=1]
radius = 160.606

[node name="Bomb" type="Area2D"]
script = ExtResource( 1 )

[node name="Sprite" type="Sprite" parent="."]
texture = ExtResource( 2 )

[node name="CollisionShape2D" type="CollisionShape2D" parent="."]
shape = SubResource( 1 )

[node name="BombExpire" type="Timer" parent="."]
wait_time = 30.0
autostart = true
[connection signal="area_entered" from="." to="." method="_on_Bomb_area_entered"]
[connection signal="body_entered" from="." to="." method="_on_Bomb_body_entered"]
[connection signal="timeout" from="BombExpire" to="." method="_on_BombExpire_timeout"]
